3.48627 4020
3.48627 4020
3.71459 4020
3.76179 4020
4.08259 4020
4.12979 4020
4.17699 4020
4.44867 4020
4.49587 4020
4.81667 4020
4.86387 4020
4.91107 4020
5.50547 4020
5.72803 4020
6.12403 4020
6.34851 4020
6.93331 4020
6.93331 4020
7.37843 4020
7.60675 4020
8.01235 4020
8.34627 4020
8.63475 4020
8.86307 4020
9.26867 4020
9.51587 4020
9.77987 4020
9.89875 4020
10.1309 4020
10.5365 4020
10.9572 4020
11.1194 4020
11.3439 4020
11.5911 4020
11.7928 4020
12.04 4020
12.3324 4020
12.5568 4020
12.804 4020
13.002 4020
13.2492 4020
13.4736 4020
13.5964 4020
13.8208 4020
14.0887 4020
14.2698 4020
14.6904 4020
14.8565 4020
15.0848 4020
15.3093 4020
15.4904 4020
15.7376 4020
16.0733 4020
16.3055 4020
16.5772 4020
16.8016 4020
17.0261 4020
17.2733 4020
17.3488 4020
17.581 4020
17.896 4020
18.0772 4020
18.3016 4020
18.7772 4020
18.8527 4020
19.0772 4020
19.3244 4020
19.396 4020
19.6205 4020
19.9432 4020
20.081 4020
20.3282 4020
20.5338 4020
20.7226 4020
21.0415 4020
21.266 4020
21.4943 4020
21.8132 4020
22.002 4020
22.3208 4020
22.5944 2948
22.5944 2948
22.7756 2948
22.8228 2948
23.0944 2948
23.1416 2948
23.1888 2948
23.5077 2948
23.5549 2948
23.6021 2948
23.8738 2948
24.238 2948
24.238 2948
24.6191 2948
25.1397 2948
25.502 2948
26.0642 2948
26.4076 2948
26.6548 2948
26.7736 2948
27.4698 2948
27.6754 2948
28.0999 2948
28.1754 2948
28.8999 2948
29.1471 2948
29.3604 2948
29.6076 2948
29.8792 2948
30.1792 2948
30.5565 2948
30.6397 2948
31.0887 2948
31.4076 2948
31.6548 2948
31.9548 2948
32.202 2948
32.368 2948
32.6946 2948
32.9778 2948
33.1666 2948
33.3082 2948
33.5442 2948
33.8274 2948
34.0634 2948
34.205 2948
34.441 2948
34.7242 2948
34.9602 2948
35.1018 2948
35.3378 2948
35.4794 2948
35.7626 2948
35.9986 2948
36.1874 2948
36.4234 2948
36.565 2948
36.8482 2948
37.0842 2948
37.273 2948
37.509 2948
37.6506 2948
37.9338 2948
38.1226 2948
38.3114 2948
38.5946 2948
38.7362 2948
39.0194 2948
39.2082 2948
39.397 2948
39.6802 2948
39.8218 2948
40.105 2948
40.2938 2948
40.4826 2948
40.6242 2948
40.9074 2948
41.0962 2948
41.3794 2948
41.5682 2948
41.757 2948
41.8986 2948
42.1818 2948
42.3706 2948
42.6538 2948
42.8426 2948
42.9842 2948
43.173 2948
43.409 2948
43.5978 2948
43.881 2948
44.0698 2948
44.2114 2948
44.4474 2948
44.6362 2948
44.8722 2948
45.1082 2948
45.297 2948
45.6274 2948
45.769 2948
45.9578 2948
46.1466 2948
46.2882 2948
46.5242 2948
46.713 2948
46.9018 2948
47.1378 2948
47.2322 2948
47.4682 2948
47.657 2948
47.7986 2948
48.0818 2948
48.1762 2948
48.4122 2948
48.5538 2948
48.6954 2948
48.837 2948
48.9314 2948
49.073 2948
49.1674 2948
49.309 2948
49.4978 2948
49.5922 2948
49.781 2948
49.9226 2948
50.017 2948
50.1114 2948
50.253 2948
50.3474 2948
50.4418 2948
50.5362 2948
50.725 2948
50.8666 2948
50.961 2948
51.0554 2948
51.1498 2948
51.2914 2948
51.3858 2948
51.4802 2948
51.669 2948
51.7634 2948
51.905 2948
51.9994 2948
52.0938 2948
52.1882 2948
52.2826 2948
52.4714 2948
52.6602 2948
52.7546 2948
52.849 2948
52.9434 2948
53.085 2948
