
set terminal png
set output "dumbbell-tp2-cwnd-ssthresh3.png"
set xlabel "Time(seconds)"
set ylabel "segmentos"
set title "Congestion Window Plot"
plot "dumbbell-tp2-30-cwnd.data" using 1:2 title "cwnd"with lines, \
"hybla_dumbbell-tp2-30-ssth.data" using 1:2 title "ssthresh" with lines
