0.0 3
0.6464 1.938
1.54192 1.89512
1.91952 2.26098
2.29712 2.89546
2.67472 3.69706
2.86352 4.38358
3.33552 5.29741
3.62992 5.13947
3.90192 4.82121
4.27952 4.94888
4.57392 4.85726
4.84592 5.02247
10.8987 4.30351
11.2651 3.84246
11.5595 3.46116
11.7371 3.16193
12.0203 2.83459
12.3147 2.75097
12.6923 2.55135
12.9643 2.40057
13.3419 2.27615
13.5307 2.19143
13.8139 2.12339
14.2027 2.17528
14.5803 2.20036
14.8523 2.20706
15.2299 2.20148
15.4187 2.18803
15.6075 2.12224
16.1851 2.23054
16.5627 2.29275
16.7403 2.21811
17.1179 2.15881
17.3067 2.32406
17.4955 2.42479
17.9675 2.79839
18.5339 2.59225
18.8283 2.56918
19.0059 2.50802
19.3003 2.39799
19.4779 2.51229
19.7723 2.69588
19.9499 2.57657
20.4219 2.56194
20.7995 2.45866
21.0939 2.43812
21.3659 2.7197
21.6603 2.69412
21.8379 2.86048
22.3099 2.95402
22.6043 2.79772
22.8763 2.98193
23.2539 3.08523
23.5483 2.89986
23.8203 2.9993
24.1979 2.94067
24.4923 2.83653
24.7643 2.92111
28.1739 3.00812
28.8235 3.29069
29.2955 3.34407
29.9675 3.32795
30.5227 3.35255
30.8171 3.0589
31.1835 2.92567
31.9499 2.72355
32.4107 2.64999
32.7995 2.49566
33.0715 2.46057
33.9323 2.34479
34.2987 2.3334
34.5819 2.47046
34.9595 2.44335
35.9147 2.32961
36.1867 2.32316
36.4699 2.30533
36.9531 2.25835
37.2363 2.53763
37.7915 2.51353
38.0747 2.46819
38.4635 2.36682
38.7355 2.59464
39.2187 2.47633
39.6795 2.46548
39.9627 2.44032
40.4472 2.32911
40.6235 2.3236
41.0955 2.316
41.5675 2.28767
41.8507 2.25658
42.2283 2.31829
42.5115 2.24837
42.8059 2.34698
43.0779 2.56678
43.3611 2.67713
43.7387 2.71397
43.9275 2.78278
44.2219 2.52798
44.4939 2.35445
44.7771 2.20924
45.1659 2.1864
45.3435 2.17665
45.5323 2.15238
45.9211 2.04166
46.0987 2.03669
46.4763 1.96361
46.8539 1.895
47.1371 1.96276
47.3259 2.00083
47.7035 2.00694
48.0923 2.24242
48.2699 2.16307
48.6475 2.10056
48.9307 2.04882
49.2139 2.11376
49.5915 2.14931
49.9691 2.15211
50.3579 2.38272
50.5355 2.29985
50.7243 2.23323
51.0187 2.41344
51.2907 2.50917
51.4795 2.36419
51.9515 2.34387
52.3291 2.30798
52.6123 2.39206
52.9067 2.55551
53.2731 2.73323
53.5675 2.85966
53.7451 2.91205
54.2171 2.92624
54.4059 2.72976
54.7947 2.67463
54.9723 2.8233
55.2667 2.90639
55.5387 2.83696
55.8331 2.77466
56.0107 2.71675
56.3883 2.60787
56.9573 2.90852
58.9962 5.81704
59.4117 2.90852
62.1467 3.12957
62.4411 3.22236
63.6571 3.49622
64.0459 3.53252
65.1675 3.57833
65.4619 3.2865
65.7451 3.13967
66.7723 3.08144
67.2555 2.83171
67.5275 2.6459
68.5659 2.48734
69.1323 2.37105
69.4267 2.30405
69.6334 2.87253
70.0328 3.3362
70.3272 3.56348
70.5339 3.6303
70.9333 3.58796
71.2277 3.47708
71.4344 3.3229
71.8338 3.14692
72.1282 2.96033
72.317 2.60904
72.6114 2.25399
72.7342 2.22884
73.0286 2.17172
73.2174 2.09361
73.5403 1.98059
73.8347 1.78884
73.9291 1.75881
74.1179 1.71316
74.3464 1.65244
74.6408 1.56361
74.7352 1.56639
74.924 1.46518
75.1525 1.3643
75.4469 1.36093
75.5413 1.39928
75.7301 1.32662
75.9189 1.26945
76.1077 1.25745
76.3474 1.28737
76.5362 1.21552
76.725 1.16035
76.9138 1.12007
77.1534 1.1471
77.3422 1.11521
77.531 1.09052
77.7198 1.07133
77.9086 1.05636
78.0974 1.08923
78.2459 1.14215
