0.0 0
0.640213 5360
0.640213 5360
1.49995 5896
1.87755 6432
2.25515 6968
2.64395 7504
2.82155 8040
3.11595 8576
3.38795 9112
3.76555 9648
4.05995 10184
4.33195 10720
4.70955 11256
5.28021 11256
5.28021 10720
5.56341 7504
5.65781 7097
5.75221 6782
6.12981 6467
6.22421 6153
6.50955 5838
6.60395 5092
6.69835 4288
7.07595 3216
7.54795 5092
9.62955 5628
11.3175 6164
13.2999 6700
15.4711 7236
17.8311 7772
18.3997 7772
18.3997 6968
18.7773 6432
18.8717 5963
19.1549 5628
19.2493 5293
19.3437 4958
19.7213 4623
19.8157 4288
19.9101 3953
20.1933 3216
20.7879 3216
20.7879 536
20.8519 1072
21.3351 1608
23.8839 2144
25.0055 2680
26.6215 3216
28.2151 3752
30.1031 4288
31.9911 4824
34.1623 5360
36.3335 5896
38.0327 6432
39.5431 6968
41.3367 7504
44.0743 8040
44.7373 8040
44.7373 7504
44.9261 6968
45.0205 6511
45.1149 6180
45.3981 5849
45.5869 5518
45.6813 5187
45.8701 4856
45.9645 4525
46.0589 4194
46.3421 3484
46.4365 3216
46.9063 3484
46.9063 5092
48.6055 5628
50.1159 6164
51.8151 6700
53.8919 7236
56.3463 7772
57.9533 7772
57.9533 6968
58.2365 6432
58.3309 5963
58.4274 5628
58.805 5293
58.8994 4422
59.1826 4087
59.277 3216
60.6887 4288
62.5767 4824
64.7591 5360
67.0135 5896
68.7127 6432
70.2231 6968
72.0167 7504
