0.0 3
0.63248 1.896
1.46515 1.80612
1.74067 2.02611
2.01619 2.45228
2.15395 2.8527
2.38611 3.33598
2.63331 3.88158
2.75219 3.3776
3.17667 3.14917
3.29555 3.07959
3.54275 2.95367
3.66547 2.96479
8.42306 5.92957
8.72723 2.96479
10.8949 2.59152
11.8117 2.39051
12.1512 2.17731
13.2964 2.15597
13.4114 2.01439
13.6586 2.04758
14.6282 1.88552
14.8754 1.88418
15.1037 1.8488
15.8922 1.82251
16.2149 1.72218
16.5527 1.73615
17.1677 1.72406
17.4866 1.70472
18.0016 1.73191
18.4394 1.71355
18.6866 1.81529
18.7583 1.78817
19.4149 1.74377
19.7149 1.72626
20.096 1.69748
20.3093 1.82824
20.6754 1.82438
20.9943 1.78762
21.5132 1.74724
21.5887 1.72662
21.9548 1.6991
22.2736 1.66791
22.868 1.60593
23.1152 1.75092
23.2813 1.68463
23.5285 1.84609
23.6946 1.77141
24.1436 1.77601
24.5096 1.69704
24.7341 1.70213
24.9586 1.73086
25.4076 1.73513
25.7698 1.72671
25.9548 1.74305
26.1792 1.74446
26.4264 1.7619
26.6792 1.76255
27.0415 1.74765
27.2226 1.7265
27.5376 1.64591
27.9226 1.73927
27.9943 1.68963
28.3132 1.68297
28.6244 1.65996
28.766 1.79542
29.1716 1.9788
29.266 1.95852
29.5887 1.92023
29.9037 1.87144
30.0415 1.82353
30.4509 1.77235
30.5453 1.72248
30.8642 1.67942
31.1831 1.63505
31.6359 1.86178
31.7303 2.10907
32.0964 2.20985
32.4152 2.51037
32.553 2.48283
32.7418 2.29366
32.8834 2.3337
33.0722 2.2438
33.261 2.31237
33.4498 2.43523
33.5914 2.46769
33.733 2.48635
33.8746 2.45187
34.0162 2.42471
34.2522 2.31862
34.3938 2.24953
34.5826 2.12228
34.677 2.04454
34.8658 1.918
35.0074 1.806
35.2434 1.70702
35.385 1.6197
35.5738 1.54274
35.7154 1.433
35.857 1.39067
36.0458 1.30927
36.2346 1.44947
36.3762 1.42877
36.6122 1.51282
36.7066 1.4522
36.8954 1.45532
37.037 1.44877
37.2258 1.43607
37.3674 1.36685
37.6034 1.41987
37.745 1.3558
37.8866 1.34848
38.0754 1.33841
38.2642 1.38085
38.453 1.4028
38.5474 1.35884
38.7834 1.3244
38.925 1.29728
39.0666 1.27583
39.2554 1.25875
39.4442 1.24508
39.5858 1.26316
39.7274 1.25212
39.9634 1.24262
40.0578 1.25849
40.2466 1.25054
40.4354 1.24312
40.6714 1.28915
40.7658 1.26454
40.9546 1.29863
41.1434 1.53138
41.2378 1.52077
41.4266 1.61297
41.6154 1.66585
41.8514 1.74415
41.993 1.67841
42.1346 1.6781
42.3234 1.66823
42.465 1.59841
42.6066 1.59791
42.7954 1.59044
43.0314 1.63149
43.2674 1.65169
43.3618 1.60471
43.5506 1.61939
43.6922 1.56979
43.8338 1.53097
44.0226 1.5533
44.2586 1.61654
44.353 1.60586
44.589 1.58995
44.7778 1.59195
44.9666 1.58776
45.061 1.54205
45.2498 1.54626
45.3914 1.51463
45.533 1.57245
45.7218 1.52442
45.8634 1.56463
46.0522 1.58196
46.3354 1.5499
46.4298 1.5232
46.6658 1.55374
48.2195 3.10748
48.4594 1.55374
49.8282 1.74355
50.3586 1.79681
50.6778 2.06949
50.9722 1.95217
51.4442 1.90068
51.6218 1.96567
52.0578 1.85302
52.4242 1.84697
52.613 1.80628
53.1788 1.64035
53.3676 1.67098
53.6148 1.61671
53.9805 1.73688
54.1221 1.66228
54.3693 1.54013
54.5693 1.48427
54.7823 1.56495
54.9239 1.59493
55.3239 1.45592
55.5239 1.34901
55.584 1.3995
55.6784 1.33172
55.7256 1.35587
